Lab 1: Intro to R
…
nycdf <- as.data.frame(flights)
class(nycdf)

## [1] "data.frame"

The first difference between data frames and tibbles is how the
dataset looks. Tibbles have a refined print method that shows only the
first 10 rows, and only the columns that fit on the screen. In addition,
each column reports its name and type.

nyctibble

## # A tibble: 336,776 × 19
##     year month   day dep_time sched_dep_time dep_delay arr_time sched_arr_time
##    <int> <int> <int>    <int>          <int>     <dbl>    <int>          <int>
##  1  2013     1     1      517            515         2      830            819
##  2  2013     1     1      533            529         4      850            830
##  3  2013     1     1      542            540         2      923            850
##  4  2013     1     1      544            545        -1     1004           1022
##  5  2013     1     1      554            600        -6      812            837
##  6  2013     1     1      554            558        -4      740            728
##  7  2013     1     1      555            600        -5      913            854
##  8  2013     1     1      557            600        -3      709            723
##  9  2013     1     1      557            600        -3      838            846
## 10  2013     1     1      558            600        -2      753            745
## # ℹ 336,766 more rows
## # ℹ 11 more variables: arr_delay <dbl>, carrier <chr>, flight <int>,
## #   tailnum <chr>, origin <chr>, dest <chr>, air_time <dbl>, distance <dbl>,
## #   hour <dbl>, minute <dbl>, time_hour <dttm>
…
##  [1] "year"           "month"          "day"            "dep_time"      
##  [5] "sched_dep_time" "dep_delay"      "arr_time"       "sched_arr_time"
##  [9] "arr_delay"      "carrier"        "flight"         "tailnum"       
## [13] "origin"         "dest"           "air_time"       "distance"      
## [17] "hour"           "minute"         "time_hour"

Those may come in handy if we wanted to analyze the data!

Finally, let’s convert a regular data frame to a tibble using the
as_tibble() function.

as_tibble(nycdf)

## # A tibble: 336,776 × 19
##     year month   day dep_time sched_dep_time dep_delay arr_time sched_arr_time
##    <int> <int> <int>    <int>          <int>     <dbl>    <int>          <int>
##  1  2013     1     1      517            515         2      830            819
##  2  2013     1     1      533            529         4      850            830
##  3  2013     1     1      542            540         2      923            850
##  4  2013     1     1      544            545        -1     1004           1022
##  5  2013     1     1      554            600        -6      812            837
##  6  2013     1     1      554            558        -4      740            728
##  7  2013     1     1      555            600        -5      913            854
##  8  2013     1     1      557            600        -3      709            723
##  9  2013     1     1      557            600        -3      838            846
## 10  2013     1     1      558            600        -2      753            745
## # ℹ 336,766 more rows
## # ℹ 11 more variables: arr_delay <dbl>, carrier <chr>, flight <int>,
## #   tailnum <chr>, origin <chr>, dest <chr>, air_time <dbl>, distance <dbl>,
## #   hour <dbl>, minute <dbl>, time_hour <dttm>
…
## [1] "FIPS Code"                                                 
## [2] "County"                                                    
## [3] "Formatted FIPS"                                            
## [4] "Estimated median income of a household, between 2014-2018."

The name Estimated median income of a household, between
2014-2018. is a doozy! Just a little long. Use the command
rename() to - you guessed it - rename a variable! Let’s
rename Estimated median income of a household, between
2014-2018. to medinc.

rename(ca1, medinc = "Estimated median income of a household, between 2014-2018.")

## # A tibble: 58 × 4
##    `FIPS Code` County         `Formatted FIPS` medinc
##          <dbl> <chr>          <chr>             <dbl>
##  1        6071 San Bernardino 06071             60164
##  2        6027 Inyo           06027             52874
##  3        6029 Kern           06029             52479
##  4        6093 Siskiyou       06093             44200
##  5        6065 Riverside      06065             63948
##  6        6019 Fresno         06019             51261
##  7        6035 Lassen         06035             56362
##  8        6049 Modoc          06049             45149
##  9        6107 Tulare         06107             47518
## 10        6023 Humboldt       06023             45528
## # ℹ 48 more rows
…
ca2 <- select(ca2, GEOID, tpoprE, nhwhiteE, nhblkE, nhasnE, hispE)

Here, we provide the data object first, followed by the variables we
want to keep separated by commas.

Let’s keep County, GEOID, and medinc from
the ca1 dataset. Rather than listing all the variables we want
to keep like we did above, a shortcut way of doing this is to use the
: operator.

select(ca1, County:medinc)

## # A tibble: 58 × 3
##    County         GEOID medinc
##    <chr>          <chr>  <dbl>
##  1 San Bernardino 06071  60164
##  2 Inyo           06027  52874
##  3 Kern           06029  52479
##  4 Siskiyou       06093  44200
##  5 Riverside      06065  63948
##  6 Fresno         06019  51261
##  7 Lassen         06035  56362
##  8 Modoc          06049  45149
##  9 Tulare         06107  47518
## 10 Humboldt       06023  45528
## # ℹ 48 more rows
…
You can use the mutate() command to generate as many new
variables as you would like. For example, let’s construct four new
variables in ca2 - the percent of residents who are
non-Hispanic white, non-Hispanic Asian, non-Hispanic black, and
Hispanic. Name these variables pwhite, pasian,
pblack, and phisp, respectively.

mutate(ca2, pwhite = nhwhiteE/tpoprE, pasian = nhasnE/tpoprE, 
              pblack = nhblkE/tpoprE, phisp = hispE/tpoprE)

## # A tibble: 58 × 10
##    GEOID  tpoprE nhwhiteE nhblkE nhasnE  hispE pwhite pasian  pblack phisp
##    <chr>   <dbl>    <dbl>  <dbl>  <dbl>  <dbl>  <dbl>  <dbl>   <dbl> <dbl>
##  1 06033   64148    45623   1426    642  12830  0.711 0.0100 0.0222  0.200
##  2 06047  269075    76008   8038  19487 158494  0.282 0.0724 0.0299  0.589
##  3 06043   17540    14125    166    243   1909  0.805 0.0139 0.00946 0.109
##  4 06049    8938     6962    149    130   1292  0.779 0.0145 0.0167  0.145
##  5 06013 1133247   502951  93683 182135 288101  0.444 0.161  0.0827  0.254
##  6 06027   18085    11389    160    289   3927  0.630 0.0160 0.00885 0.217
##  7 06099  539301   229796  14338  28599 245973  0.426 0.0530 0.0266  0.456
##  8 06083  443738   199356   7881  22996 200060  0.449 0.0518 0.0178  0.451
##  9 06051   14174     9234     40    336   3866  0.651 0.0237 0.00282 0.273
## 10 06069   59416    20780    434   1705  35248  0.350 0.0287 0.00730 0.593
## # ℹ 48 more rows
…
filter(cacounty, GEOID == "06067")

## # A tibble: 1 × 8
##   GEOID County     pwhite pasian pblack phisp mhisp        medinc
##   <chr> <chr>       <dbl>  <dbl>  <dbl> <dbl> <chr>         <dbl>
## 1 06067 Sacramento  0.452  0.153 0.0954 0.230 Not Majority  63902

The double equal operator == means equal to. We can also
explicitly exclude cases and keep everything else by using the not equal
operator !=. Conversely, the following code
excludes Sacramento county.

filter(cacounty, GEOID != "06067")

## # A tibble: 57 × 8
##    GEOID County         pwhite pasian  pblack phisp mhisp        medinc
##    <chr> <chr>           <dbl>  <dbl>   <dbl> <dbl> <chr>         <dbl>
##  1 06071 San Bernardino  0.292 0.0682 0.0791  0.528 Majority      60164
##  2 06027 Inyo            0.630 0.0160 0.00885 0.217 Not Majority  52874
##  3 06029 Kern            0.348 0.0456 0.0510  0.528 Majority      52479
##  4 06093 Siskiyou        0.767 0.0154 0.0142  0.123 Not Majority  44200
##  5 06065 Riverside       0.359 0.0620 0.0606  0.484 Not Majority  63948
##  6 06019 Fresno          0.298 0.100  0.0455  0.527 Majority      51261
##  7 06035 Lassen          0.658 0.0140 0.0864  0.187 Not Majority  56362
##  8 06049 Modoc           0.779 0.0145 0.0167  0.145 Not Majority  45149
##  9 06107 Tulare          0.290 0.0321 0.0127  0.641 Majority      47518
## 10 06023 Humboldt        0.746 0.0298 0.00988 0.113 Not Majority  45528
## # ℹ 47 more rows

What about filtering if a county has a value greater than a specified
value? For example, counties with a percent white greater than 0.5
(50%).

filter(cacounty, pwhite > 0.5)

## # A tibble: 30 × 8
##    GEOID County          pwhite pasian  pblack  phisp mhisp        medinc
##    <chr> <chr>            <dbl>  <dbl>   <dbl>  <dbl> <chr>         <dbl>
##  1 06027 Inyo             0.630 0.0160 0.00885 0.217  Not Majority  52874
##  2 06093 Siskiyou         0.767 0.0154 0.0142  0.123  Not Majority  44200
##  3 06035 Lassen           0.658 0.0140 0.0864  0.187  Not Majority  56362
##  4 06049 Modoc            0.779 0.0145 0.0167  0.145  Not Majority  45149
##  5 06023 Humboldt         0.746 0.0298 0.00988 0.113  Not Majority  45528
##  6 06089 Shasta           0.802 0.0297 0.0119  0.0983 Not Majority  50905
##  7 06045 Mendocino        0.656 0.0191 0.00585 0.248  Not Majority  49233
##  8 06105 Trinity          0.825 0.0139 0.00676 0.0723 Not Majority  38497
##  9 06079 San Luis Obispo  0.691 0.0353 0.0175  0.224  Not Majority  70699
## 10 06103 Tehama           0.687 0.0152 0.00663 0.247  Not Majority  42899
## # ℹ 20 more rows

What about less than 0.5 (50%)?

filter(cacounty, pwhite < 0.5)

## # A tibble: 28 × 8
##    GEOID County         pwhite pasian pblack phisp mhisp        medinc
##    <chr> <chr>           <dbl>  <dbl>  <dbl> <dbl> <chr>         <dbl>
##  1 06071 San Bernardino  0.292 0.0682 0.0791 0.528 Majority      60164
##  2 06029 Kern            0.348 0.0456 0.0510 0.528 Majority      52479
##  3 06065 Riverside       0.359 0.0620 0.0606 0.484 Not Majority  63948
##  4 06019 Fresno          0.298 0.100  0.0455 0.527 Majority      51261
##  5 06107 Tulare          0.290 0.0321 0.0127 0.641 Majority      47518
##  6 06037 Los Angeles     0.263 0.144  0.0788 0.485 Not Majority  64251
##  7 06073 San Diego       0.459 0.116  0.0471 0.335 Not Majority  74855
##  8 06025 Imperial        0.110 0.0132 0.0217 0.838 Majority      45834
##  9 06053 Monterey        0.303 0.0546 0.0245 0.583 Majority      66676
## 10 06083 Santa Barbara   0.449 0.0518 0.0178 0.451 Not Majority  71657
## # ℹ 18 more rows

Both lines of code do not include counties that have a percent white
equal to 0.5. We include it by using the less than or equal operator
<= or greater than or equal operator
>=.

filter(cacounty, pwhite <= 0.5)

## # A tibble: 28 × 8
##    GEOID County         pwhite pasian pblack phisp mhisp        medinc
##    <chr> <chr>           <dbl>  <dbl>  <dbl> <dbl> <chr>         <dbl>
##  1 06071 San Bernardino  0.292 0.0682 0.0791 0.528 Majority      60164
##  2 06029 Kern            0.348 0.0456 0.0510 0.528 Majority      52479
##  3 06065 Riverside       0.359 0.0620 0.0606 0.484 Not Majority  63948
##  4 06019 Fresno          0.298 0.100  0.0455 0.527 Majority      51261
##  5 06107 Tulare          0.290 0.0321 0.0127 0.641 Majority      47518
##  6 06037 Los Angeles     0.263 0.144  0.0788 0.485 Not Majority  64251
##  7 06073 San Diego       0.459 0.116  0.0471 0.335 Not Majority  74855
##  8 06025 Imperial        0.110 0.0132 0.0217 0.838 Majority      45834
##  9 06053 Monterey        0.303 0.0546 0.0245 0.583 Majority      66676
## 10 06083 Santa Barbara   0.449 0.0518 0.0178 0.451 Not Majority  71657
## # ℹ 18 more rows
…
