Lab 3 In Class
…
## # A tibble: 5 × 2
##   region                 Mean
##   <chr>                 <dbl>
## 1 Bay Area            129297.
## 2 Capital Region       89288.
## 3 Central Valley       69265.
## 4 Rest                 74959.
## 5 Southern California  91332.

cacounty %>%
  group_by(region) 

## # A tibble: 58 × 9
## # Groups:   region [5]
##    GEOID County       pwhite  pasian  pblack phisp mhisp        mhhinc region   
##    <chr> <chr>         <dbl>   <dbl>   <dbl> <dbl> <chr>         <dbl> <chr>    
##  1 06001 Alameda       0.282 0.320   0.0963  0.233 Not Majority 126240 Bay Area 
##  2 06003 Alpine        0.586 0.00472 0       0.147 Not Majority 110781 Capital …
##  3 06005 Amador        0.737 0.0143  0.0190  0.155 Not Majority  81526 Rest     
##  4 06007 Butte         0.666 0.0526  0.0169  0.195 Not Majority  68574 Rest     
##  5 06009 Calaveras     0.774 0.0232  0.0115  0.139 Not Majority  79877 Rest     
##  6 06011 Colusa        0.314 0.00461 0.0142  0.623 Majority      75149 Capital …
##  7 06013 Contra Costa  0.393 0.183   0.0817  0.273 Not Majority 125727 Bay Area 
##  8 06015 Del Norte     0.611 0.0301  0.0295  0.196 Not Majority  66780 Rest     
##  9 06017 El Dorado     0.741 0.0501  0.00791 0.142 Not Majority 106190 Capital …
## 10 06019 Fresno        0.270 0.108   0.0416  0.541 Majority      71434 Central …
## # ℹ 48 more rows
…
